{
  "tsgwebhook": "https://hooks.slack.com/services/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",
  "server": "AcadianSQL",
  "database": "HPDM",
  "bodytemplate": "*Task ID has failed with error code CODE*\n*Comment:* COM\n*Time:* TIME",
  "logName": "HPDM",
  "logSource": "taskfailure_notification",
  "logEventId": 1,
  "logFileName": "hpdm_taskfailure_notification_log.txt"
}